{
    "$schema": "http://json-schema.org/draft-04/schema#",
    "title": "Error Response Schema",    
    "type": "object",
    "properties": {
        "errors": {
            "type": "array",
            "items": {
                "type": "object",
                "properties": {
                    "error_code": {
                        "type": "string"
                    },
                    "description": {
                        "type": "string"
                    },
                    "field_name": {
                        "type": "string"
                    },
                    "field_value": {
                        "type": "string"
                    },
                    "api_specification_url": {
                        "type": "string"
                    }
                },
                "required": ["error_code", "field_name", "description"]
            }
        }
    }
}